This is FFC, the FEniCS Form Compiler, version 1.5.0.
For further information, visit http://www.fenics.org/ffc/.

Compiling form Biharmonic

Compiler stage 1: Analyzing form(s)
-----------------------------------
  
  Geometric dimension:                 2
  Number of cell subdomains:           0
  Number of interior_facet subdomains: 0
  Rank:                                2
  Arguments:                           '(v_0, v_1)'
  Number of coefficients:              1
  Coefficients:                        '[w_1]'
  Unique elements:                     'CG2(?), R0(?)'
  Unique sub elements:                 'CG2(?), R0(?)'
  
  Extracting monomial form representation from UFL form
  Transforming monomial form to reference element
  Reusing element from cache
  Estimated cost of tensor representation: 4
  representation:    auto --> quadrature
  Selecting quadrature degree based on total polynomial degree of integrand: 0
  quadrature_degree: auto --> 0
  quadrature_rule:   auto --> default
  Extracting monomial form representation from UFL form
  Monomial extraction failed: No handler defined for terminal FacetNormal.
  Estimated cost of tensor representation: -1
  representation:    auto --> quadrature
  Selecting quadrature degree based on total polynomial degree of integrand: 2
  quadrature_degree: auto --> 2
  quadrature_rule:   auto --> default
  
  Geometric dimension:       2
  Number of cell subdomains: 0
  Rank:                      1
  Arguments:                 '(v_0)'
  Number of coefficients:    1
  Coefficients:              '[w_0]'
  Unique elements:           'CG2(?)'
  Unique sub elements:       'CG2(?)'
  
  Extracting monomial form representation from UFL form
  Transforming monomial form to reference element
  Reusing element from cache
  Reusing element from cache
  Estimated cost of tensor representation: 1
  representation:    auto --> tensor
  Selecting quadrature degree based on total polynomial degree of integrand: 4
  quadrature_degree: auto --> 4
  quadrature_rule:   auto --> default
  
Compiler stage 1 finished in 0.093822 seconds.

Compiler stage 2: Computing intermediate representation
-------------------------------------------------------
  Computing representation of 2 elements
  Reusing element from cache
  Reusing element from cache
  Reusing element from cache
  Computing representation of 2 dofmaps
  Reusing element from cache
  Reusing element from cache
  Computing representation of integrals
  Computing quadrature representation
  Reusing element from cache
  Reusing element from cache
  Reusing element from cache
  Reusing element from cache
  Reusing element from cache
  Reusing element from cache
  
  QG-utils, psi_tables:
  {1: {VectorElement('Lagrange', Domain(Cell('triangle', 2), label=None, data=None), 1, dim=2, quad_scheme=None): {None: {None: {(0, 1): array([[[ -1.00000000e+00],
          [  0.00000000e+00]],
  
         [[  8.88178420e-16],
          [  0.00000000e+00]],
  
         [[  1.00000000e+00],
          [  0.00000000e+00]],
  
         [[  0.00000000e+00],
          [ -1.00000000e+00]],
  
         [[  0.00000000e+00],
          [  8.88178420e-16]],
  
         [[  0.00000000e+00],
          [  1.00000000e+00]]]), (1, 0): array([[[-1.],
          [ 0.]],
  
         [[ 1.],
          [ 0.]],
  
         [[ 0.],
          [ 0.]],
  
         [[ 0.],
          [-1.]],
  
         [[ 0.],
          [ 1.]],
  
         [[ 0.],
          [ 0.]]]), (0, 0): array([[[ 0.33333333],
          [ 0.        ]],
  
         [[ 0.33333333],
          [ 0.        ]],
  
         [[ 0.33333333],
          [ 0.        ]],
  
         [[ 0.        ],
          [ 0.33333333]],
  
         [[ 0.        ],
          [ 0.33333333]],
  
         [[ 0.        ],
          [ 0.33333333]]])}}}, FiniteElement('Lagrange', Domain(Cell('triangle', 2), label=None, data=None), 2, quad_scheme=None): {None: {None: {(0, 1): array([[ -3.33333333e-01],
         [  7.34134975e-15],
         [  3.33333333e-01],
         [  1.33333333e+00],
         [  9.27036226e-15],
         [ -1.33333333e+00]]), (0, 0): array([[-0.11111111],
         [-0.11111111],
         [-0.11111111],
         [ 0.44444444],
         [ 0.44444444],
         [ 0.44444444]]), (0, 2): array([[  4.00000000e+00],
         [  2.88657986e-15],
         [  4.00000000e+00],
         [ -2.66453526e-15],
         [ -8.00000000e+00],
         [ -2.44249065e-15]]), (2, 0): array([[ 4.],
         [ 4.],
         [ 0.],
         [ 0.],
         [ 0.],
         [-8.]]), (1, 0): array([[ -3.33333333e-01],
         [  3.33333333e-01],
         [  0.00000000e+00],
         [  1.33333333e+00],
         [ -1.33333333e+00],
         [ -7.07941648e-17]]), (1, 1): array([[  4.00000000e+00],
         [  7.32747196e-15],
         [  0.00000000e+00],
         [  4.00000000e+00],
         [ -4.00000000e+00],
         [ -4.00000000e+00]])}}}}}
  
  QG-utils, psi_tables, flat_tables:
  {'FE0_D10': array([[ -3.33333333e-01,   3.33333333e-01,   0.00000000e+00,
            1.33333333e+00,  -1.33333333e+00,  -7.07941648e-17]]), 'FE0_D02': array([[  4.00000000e+00,   2.88657986e-15,   4.00000000e+00,
           -2.66453526e-15,  -8.00000000e+00,  -2.44249065e-15]]), 'FE0_D01': array([[ -3.33333333e-01,   7.34134975e-15,   3.33333333e-01,
            1.33333333e+00,   9.27036226e-15,  -1.33333333e+00]]), 'FE0_D11': array([[  4.00000000e+00,   7.32747196e-15,   0.00000000e+00,
            4.00000000e+00,  -4.00000000e+00,  -4.00000000e+00]]), 'FE1_C0': array([[ 0.33333333,  0.33333333,  0.33333333,  0.        ,  0.        ,
           0.        ]]), 'FE1_C1': array([[ 0.        ,  0.        ,  0.        ,  0.33333333,  0.33333333,
           0.33333333]]), 'FE0_D20': array([[ 4.,  4.,  0.,  0.,  0., -8.]]), 'FE1_C1_D10': array([[ 0.,  0.,  0., -1.,  1.,  0.]]), 'FE0': array([[-0.11111111, -0.11111111, -0.11111111,  0.44444444,  0.44444444,
           0.44444444]]), 'FE1_C1_D01': array([[  0.00000000e+00,   0.00000000e+00,   0.00000000e+00,
           -1.00000000e+00,   8.88178420e-16,   1.00000000e+00]]), 'FE1_C0_D01': array([[ -1.00000000e+00,   8.88178420e-16,   1.00000000e+00,
            0.00000000e+00,   0.00000000e+00,   0.00000000e+00]]), 'FE1_C0_D10': array([[-1.,  1.,  0.,  0.,  0.,  0.]])}
  
  tables: {'FE0_D10': array([[ -3.33333333e-01,   3.33333333e-01,   0.00000000e+00,
            1.33333333e+00,  -1.33333333e+00,  -7.07941648e-17]]), 'FE0_D02': array([[  4.00000000e+00,   2.88657986e-15,   4.00000000e+00,
           -2.66453526e-15,  -8.00000000e+00,  -2.44249065e-15]]), 'FE0_D01': array([[ -3.33333333e-01,   7.34134975e-15,   3.33333333e-01,
            1.33333333e+00,   9.27036226e-15,  -1.33333333e+00]]), 'FE0_D11': array([[  4.00000000e+00,   7.32747196e-15,   0.00000000e+00,
            4.00000000e+00,  -4.00000000e+00,  -4.00000000e+00]]), 'FE1_C0': array([[ 0.33333333,  0.33333333,  0.33333333,  0.        ,  0.        ,
           0.        ]]), 'FE1_C1': array([[ 0.        ,  0.        ,  0.        ,  0.33333333,  0.33333333,
           0.33333333]]), 'FE0_D20': array([[ 4.,  4.,  0.,  0.,  0., -8.]]), 'FE1_C1_D10': array([[ 0.,  0.,  0., -1.,  1.,  0.]]), 'FE0': array([[-0.11111111, -0.11111111, -0.11111111,  0.44444444,  0.44444444,
           0.44444444]]), 'FE1_C1_D01': array([[  0.00000000e+00,   0.00000000e+00,   0.00000000e+00,
           -1.00000000e+00,   8.88178420e-16,   1.00000000e+00]]), 'FE1_C0_D01': array([[ -1.00000000e+00,   8.88178420e-16,   1.00000000e+00,
            0.00000000e+00,   0.00000000e+00,   0.00000000e+00]]), 'FE1_C0_D10': array([[-1.,  1.,  0.,  0.,  0.,  0.]])}
  
  name_map: {}
  
  inv_name_map: {'FE0_D10': 'FE0_D10', 'FE0_D02': 'FE0_D02', 'FE0_D01': 'FE0_D01', 'FE0_D11': 'FE0_D11', 'FE1_C0': 'FE1_C0', 'FE1_C1': 'FE1_C1', 'FE0_D20': 'FE0_D20', 'FE1_C1_D10': 'FE1_C1_D10', 'FE0': 'FE0', 'FE1_C1_D01': 'FE1_C1_D01', 'FE1_C0_D01': 'FE1_C0_D01', 'FE1_C0_D10': 'FE1_C0_D10'}
  
  QG-utils, psi_tables, unique_tables:
  {'FE0_D10': array([[-0.33333333,  0.33333333,  1.33333333, -1.33333333]]), 'FE0_D02': array([[ 4.,  4., -8.]]), 'FE0_D01': array([[-0.33333333,  0.33333333,  1.33333333, -1.33333333]]), 'FE0_D11': array([[ 4.,  4., -4., -4.]]), 'FE1_C0': array([[ 0.33333333,  0.33333333,  0.33333333]]), 'FE0': array([[-0.11111111, -0.11111111, -0.11111111,  0.44444444,  0.44444444,
           0.44444444]]), 'FE1_C0_D01': array([[-1.,  1.]])}
  
  QG-utils, psi_tables, name_map:
  {'FE0_D10': ('FE0_D10', (2, [0, 1, 3, 4]), False, False), 'FE0_D02': ('FE0_D02', (1, [0, 2, 4]), False, False), 'FE0_D01': ('FE0_D01', (0, [0, 2, 3, 5]), False, False), 'FE0_D11': ('FE0_D11', (3, [0, 3, 4, 5]), False, False), 'FE1_C0': ('FE1_C0', (5, [0, 1, 2]), False, False), 'FE1_C1': ('FE1_C0', (8, [3, 4, 5]), False, False), 'FE0_D20': ('FE0_D02', (4, [0, 1, 5]), False, False), 'FE1_C1_D10': ('FE1_C0_D01', (10, [3, 4]), False, False), 'FE0': ('FE0', (), False, False), 'FE1_C1_D01': ('FE1_C0_D01', (9, [3, 5]), False, False), 'FE1_C0_D01': ('FE1_C0_D01', (6, [0, 2]), False, False), 'FE1_C0_D10': ('FE1_C0_D01', (7, [0, 1]), False, False)}
  Transforming cell integral
  Reusing element from cache
  Reusing element from cache
  Reusing element from cache
  Reusing element from cache
  Reusing element from cache
  Reusing element from cache
  Reusing element from cache
  Reusing element from cache
  Reusing element from cache
  Reusing element from cache
  Computing quadrature representation
  Reusing element from cache
  Reusing element from cache
  Reusing element from cache
  Reusing element from cache
  Reusing element from cache
  Reusing element from cache
  Reusing element from cache
  
  QG-utils, psi_tables:
  {2: {FiniteElement('Real', Domain(Cell('triangle', 2), label=None, data=None), 0, quad_scheme=None): {None: {0: {(0, 0): array([[ 1.,  1.]])}, 1: {(0, 0): array([[ 1.,  1.]])}, 2: {(0, 0): array([[ 1.,  1.]])}}}, VectorElement('Lagrange', Domain(Cell('triangle', 2), label=None, data=None), 1, dim=2, quad_scheme=None): {None: {0: {(0, 1): array([[[ -1.00000000e+00,  -1.00000000e+00],
          [  0.00000000e+00,   0.00000000e+00]],
  
         [[  8.88178420e-16,   8.88178420e-16],
          [  0.00000000e+00,   0.00000000e+00]],
  
         [[  1.00000000e+00,   1.00000000e+00],
          [  0.00000000e+00,   0.00000000e+00]],
  
         [[  0.00000000e+00,   0.00000000e+00],
          [ -1.00000000e+00,  -1.00000000e+00]],
  
         [[  0.00000000e+00,   0.00000000e+00],
          [  8.88178420e-16,   8.88178420e-16]],
  
         [[  0.00000000e+00,   0.00000000e+00],
          [  1.00000000e+00,   1.00000000e+00]]]), (1, 0): array([[[-1., -1.],
          [ 0.,  0.]],
  
         [[ 1.,  1.],
          [ 0.,  0.]],
  
         [[ 0.,  0.],
          [ 0.,  0.]],
  
         [[ 0.,  0.],
          [-1., -1.]],
  
         [[ 0.,  0.],
          [ 1.,  1.]],
  
         [[ 0.,  0.],
          [ 0.,  0.]]]), (0, 0): array([[[ -2.08166817e-17,   5.55111512e-17],
          [  0.00000000e+00,   0.00000000e+00]],
  
         [[  7.88675135e-01,   2.11324865e-01],
          [  0.00000000e+00,   0.00000000e+00]],
  
         [[  2.11324865e-01,   7.88675135e-01],
          [  0.00000000e+00,   0.00000000e+00]],
  
         [[  0.00000000e+00,   0.00000000e+00],
          [ -2.08166817e-17,   5.55111512e-17]],
  
         [[  0.00000000e+00,   0.00000000e+00],
          [  7.88675135e-01,   2.11324865e-01]],
  
         [[  0.00000000e+00,   0.00000000e+00],
          [  2.11324865e-01,   7.88675135e-01]]])}, 1: {(0, 1): array([[[ -1.00000000e+00,  -1.00000000e+00],
          [  0.00000000e+00,   0.00000000e+00]],
  
         [[  8.88178420e-16,   8.88178420e-16],
          [  0.00000000e+00,   0.00000000e+00]],
  
         [[  1.00000000e+00,   1.00000000e+00],
          [  0.00000000e+00,   0.00000000e+00]],
  
         [[  0.00000000e+00,   0.00000000e+00],
          [ -1.00000000e+00,  -1.00000000e+00]],
  
         [[  0.00000000e+00,   0.00000000e+00],
          [  8.88178420e-16,   8.88178420e-16]],
  
         [[  0.00000000e+00,   0.00000000e+00],
          [  1.00000000e+00,   1.00000000e+00]]]), (1, 0): array([[[-1., -1.],
          [ 0.,  0.]],
  
         [[ 1.,  1.],
          [ 0.,  0.]],
  
         [[ 0.,  0.],
          [ 0.,  0.]],
  
         [[ 0.,  0.],
          [-1., -1.]],
  
         [[ 0.,  0.],
          [ 1.,  1.]],
  
         [[ 0.,  0.],
          [ 0.,  0.]]]), (0, 0): array([[[  7.88675135e-01,   2.11324865e-01],
          [  0.00000000e+00,   0.00000000e+00]],
  
         [[ -2.08166817e-17,   5.55111512e-17],
          [  0.00000000e+00,   0.00000000e+00]],
  
         [[  2.11324865e-01,   7.88675135e-01],
          [  0.00000000e+00,   0.00000000e+00]],
  
         [[  0.00000000e+00,   0.00000000e+00],
          [  7.88675135e-01,   2.11324865e-01]],
  
         [[  0.00000000e+00,   0.00000000e+00],
          [ -2.08166817e-17,   5.55111512e-17]],
  
         [[  0.00000000e+00,   0.00000000e+00],
          [  2.11324865e-01,   7.88675135e-01]]])}, 2: {(0, 1): array([[[ -1.00000000e+00,  -1.00000000e+00],
          [  0.00000000e+00,   0.00000000e+00]],
  
         [[  8.88178420e-16,   8.88178420e-16],
          [  0.00000000e+00,   0.00000000e+00]],
  
         [[  1.00000000e+00,   1.00000000e+00],
          [  0.00000000e+00,   0.00000000e+00]],
  
         [[  0.00000000e+00,   0.00000000e+00],
          [ -1.00000000e+00,  -1.00000000e+00]],
  
         [[  0.00000000e+00,   0.00000000e+00],
          [  8.88178420e-16,   8.88178420e-16]],
  
         [[  0.00000000e+00,   0.00000000e+00],
          [  1.00000000e+00,   1.00000000e+00]]]), (1, 0): array([[[-1., -1.],
          [ 0.,  0.]],
  
         [[ 1.,  1.],
          [ 0.,  0.]],
  
         [[ 0.,  0.],
          [ 0.,  0.]],
  
         [[ 0.,  0.],
          [-1., -1.]],
  
         [[ 0.,  0.],
          [ 1.,  1.]],
  
         [[ 0.,  0.],
          [ 0.,  0.]]]), (0, 0): array([[[ 0.78867513,  0.21132487],
          [ 0.        ,  0.        ]],
  
         [[ 0.21132487,  0.78867513],
          [ 0.        ,  0.        ]],
  
         [[ 0.        ,  0.        ],
          [ 0.        ,  0.        ]],
  
         [[ 0.        ,  0.        ],
          [ 0.78867513,  0.21132487]],
  
         [[ 0.        ,  0.        ],
          [ 0.21132487,  0.78867513]],
  
         [[ 0.        ,  0.        ],
          [ 0.        ,  0.        ]]])}}}, FiniteElement('Lagrange', Domain(Cell('triangle', 2), label=None, data=None), 2, quad_scheme=None): {None: {0: {(0, 1): array([[  1.00000000e+00,   1.00000000e+00],
         [  8.93729535e-15,   8.43769499e-15],
         [ -1.54700538e-01,   2.15470054e+00],
         [  3.15470054e+00,   8.45299462e-01],
         [ -8.45299462e-01,  -3.15470054e+00],
         [ -3.15470054e+00,  -8.45299462e-01]]), (0, 0): array([[  2.77555756e-17,   4.16333634e-17],
         [  4.55341801e-01,  -1.22008468e-01],
         [ -1.22008468e-01,   4.55341801e-01],
         [  6.66666667e-01,   6.66666667e-01],
         [ -1.38777878e-17,  -5.55111512e-17],
         [ -1.73472348e-17,  -4.16333634e-17]]), (0, 2): array([[  4.00000000e+00,   4.00000000e+00],
         [  2.88657986e-15,   3.33066907e-15],
         [  4.00000000e+00,   4.00000000e+00],
         [ -1.77635684e-15,  -1.19904087e-14],
         [ -8.00000000e+00,  -8.00000000e+00],
         [ -1.77635684e-15,   1.99840144e-15]]), (2, 0): array([[ 4.,  4.],
         [ 4.,  4.],
         [ 0.,  0.],
         [ 0.,  0.],
         [ 0.,  0.],
         [-8., -8.]]), (1, 0): array([[ 1.        ,  1.        ],
         [ 2.15470054, -0.15470054],
         [ 0.        ,  0.        ],
         [ 0.84529946,  3.15470054],
         [-0.84529946, -3.15470054],
         [-3.15470054, -0.84529946]]), (1, 1): array([[  4.00000000e+00,   4.00000000e+00],
         [  1.19904087e-14,   2.44249065e-15],
         [  0.00000000e+00,   0.00000000e+00],
         [  4.00000000e+00,   4.00000000e+00],
         [ -4.00000000e+00,  -4.00000000e+00],
         [ -4.00000000e+00,  -4.00000000e+00]])}, 1: {(0, 1): array([[ -2.15470054e+00,   1.54700538e-01],
         [  5.82867088e-15,   7.77156117e-15],
         [ -1.54700538e-01,   2.15470054e+00],
         [ -1.13242749e-14,  -1.64313008e-14],
         [  2.30940108e+00,  -2.30940108e+00],
         [  1.60982339e-15,   2.33146835e-15]]), (0, 0): array([[  4.55341801e-01,  -1.22008468e-01],
         [  2.08166817e-17,   9.02056208e-17],
         [ -1.22008468e-01,   4.55341801e-01],
         [ -1.38777878e-17,  -2.77555756e-17],
         [  6.66666667e-01,   6.66666667e-01],
         [ -1.73472348e-17,  -4.16333634e-17]]), (0, 2): array([[  4.00000000e+00,   4.00000000e+00],
         [  2.88657986e-15,   3.33066907e-15],
         [  4.00000000e+00,   4.00000000e+00],
         [  4.44089210e-16,  -1.15463195e-14],
         [ -8.00000000e+00,  -8.00000000e+00],
         [ -5.55111512e-15,   6.66133815e-16]]), (2, 0): array([[ 4.,  4.],
         [ 4.,  4.],
         [ 0.,  0.],
         [ 0.,  0.],
         [ 0.,  0.],
         [-8., -8.]]), (1, 0): array([[-2.15470054,  0.15470054],
         [-1.        , -1.        ],
         [ 0.        ,  0.        ],
         [ 0.84529946,  3.15470054],
         [-0.84529946, -3.15470054],
         [ 3.15470054,  0.84529946]]), (1, 1): array([[  4.00000000e+00,   4.00000000e+00],
         [  7.10542736e-15,   6.66133815e-16],
         [  0.00000000e+00,   0.00000000e+00],
         [  4.00000000e+00,   4.00000000e+00],
         [ -4.00000000e+00,  -4.00000000e+00],
         [ -4.00000000e+00,  -4.00000000e+00]])}, 2: {(0, 1): array([[ -2.15470054e+00,   1.54700538e-01],
         [  5.99520433e-15,   8.10462808e-15],
         [ -1.00000000e+00,  -1.00000000e+00],
         [  8.45299462e-01,   3.15470054e+00],
         [  3.15470054e+00,   8.45299462e-01],
         [ -8.45299462e-01,  -3.15470054e+00]]), (0, 0): array([[  4.55341801e-01,  -1.22008468e-01],
         [ -1.22008468e-01,   4.55341801e-01],
         [  0.00000000e+00,   0.00000000e+00],
         [  0.00000000e+00,   2.77555756e-17],
         [  0.00000000e+00,  -5.55111512e-17],
         [  6.66666667e-01,   6.66666667e-01]]), (0, 2): array([[  4.00000000e+00,   4.00000000e+00],
         [  2.88657986e-15,   2.88657986e-15],
         [  4.00000000e+00,   4.00000000e+00],
         [  1.77635684e-15,   4.44089210e-16],
         [ -8.00000000e+00,  -8.00000000e+00],
         [ -4.88498131e-15,  -1.77635684e-15]]), (2, 0): array([[ 4.,  4.],
         [ 4.,  4.],
         [ 0.,  0.],
         [ 0.,  0.],
         [ 0.,  0.],
         [-8., -8.]]), (1, 0): array([[ -2.15470054e+00,   1.54700538e-01],
         [ -1.54700538e-01,   2.15470054e+00],
         [  0.00000000e+00,   0.00000000e+00],
         [ -1.22124533e-15,  -1.22124533e-15],
         [  1.22124533e-15,   1.22124533e-15],
         [  2.30940108e+00,  -2.30940108e+00]]), (1, 1): array([[  4.00000000e+00,   4.00000000e+00],
         [  8.43769499e-15,   1.24344979e-14],
         [  0.00000000e+00,   0.00000000e+00],
         [  4.00000000e+00,   4.00000000e+00],
         [ -4.00000000e+00,  -4.00000000e+00],
         [ -4.00000000e+00,  -4.00000000e+00]])}}}}}
  
  QG-utils, psi_tables, flat_tables:
  {'FE0_f0': array([[  2.77555756e-17,   4.55341801e-01,  -1.22008468e-01,
            6.66666667e-01,  -1.38777878e-17,  -1.73472348e-17],
         [  4.16333634e-17,  -1.22008468e-01,   4.55341801e-01,
            6.66666667e-01,  -5.55111512e-17,  -4.16333634e-17]]), 'FE0_f1': array([[  4.55341801e-01,   2.08166817e-17,  -1.22008468e-01,
           -1.38777878e-17,   6.66666667e-01,  -1.73472348e-17],
         [ -1.22008468e-01,   9.02056208e-17,   4.55341801e-01,
           -2.77555756e-17,   6.66666667e-01,  -4.16333634e-17]]), 'FE0_f2': array([[  4.55341801e-01,  -1.22008468e-01,   0.00000000e+00,
            0.00000000e+00,   0.00000000e+00,   6.66666667e-01],
         [ -1.22008468e-01,   4.55341801e-01,   0.00000000e+00,
            2.77555756e-17,  -5.55111512e-17,   6.66666667e-01]]), 'FE2_f2': array([[ 1.],
         [ 1.]]), 'FE1_f0_C1_D01': array([[  0.00000000e+00,   0.00000000e+00,   0.00000000e+00,
           -1.00000000e+00,   8.88178420e-16,   1.00000000e+00],
         [  0.00000000e+00,   0.00000000e+00,   0.00000000e+00,
           -1.00000000e+00,   8.88178420e-16,   1.00000000e+00]]), 'FE1_f2_C1_D01': array([[  0.00000000e+00,   0.00000000e+00,   0.00000000e+00,
           -1.00000000e+00,   8.88178420e-16,   1.00000000e+00],
         [  0.00000000e+00,   0.00000000e+00,   0.00000000e+00,
           -1.00000000e+00,   8.88178420e-16,   1.00000000e+00]]), 'FE1_f1_C1_D10': array([[ 0.,  0.,  0., -1.,  1.,  0.],
         [ 0.,  0.,  0., -1.,  1.,  0.]]), 'FE0_f1_D11': array([[  4.00000000e+00,   7.10542736e-15,   0.00000000e+00,
            4.00000000e+00,  -4.00000000e+00,  -4.00000000e+00],
         [  4.00000000e+00,   6.66133815e-16,   0.00000000e+00,
            4.00000000e+00,  -4.00000000e+00,  -4.00000000e+00]]), 'FE0_f1_D10': array([[-2.15470054, -1.        ,  0.        ,  0.84529946, -0.84529946,
           3.15470054],
         [ 0.15470054, -1.        ,  0.        ,  3.15470054, -3.15470054,
           0.84529946]]), 'FE0_f2_D10': array([[ -2.15470054e+00,  -1.54700538e-01,   0.00000000e+00,
           -1.22124533e-15,   1.22124533e-15,   2.30940108e+00],
         [  1.54700538e-01,   2.15470054e+00,   0.00000000e+00,
           -1.22124533e-15,   1.22124533e-15,  -2.30940108e+00]]), 'FE0_f2_D11': array([[  4.00000000e+00,   8.43769499e-15,   0.00000000e+00,
            4.00000000e+00,  -4.00000000e+00,  -4.00000000e+00],
         [  4.00000000e+00,   1.24344979e-14,   0.00000000e+00,
            4.00000000e+00,  -4.00000000e+00,  -4.00000000e+00]]), 'FE1_f2_C0': array([[ 0.78867513,  0.21132487,  0.        ,  0.        ,  0.        ,
           0.        ],
         [ 0.21132487,  0.78867513,  0.        ,  0.        ,  0.        ,
           0.        ]]), 'FE1_f2_C1': array([[ 0.        ,  0.        ,  0.        ,  0.78867513,  0.21132487,
           0.        ],
         [ 0.        ,  0.        ,  0.        ,  0.21132487,  0.78867513,
           0.        ]]), 'FE2_f1': array([[ 1.],
         [ 1.]]), 'FE1_f2_C0_D01': array([[ -1.00000000e+00,   8.88178420e-16,   1.00000000e+00,
            0.00000000e+00,   0.00000000e+00,   0.00000000e+00],
         [ -1.00000000e+00,   8.88178420e-16,   1.00000000e+00,
            0.00000000e+00,   0.00000000e+00,   0.00000000e+00]]), 'FE1_f1_C0_D10': array([[-1.,  1.,  0.,  0.,  0.,  0.],
         [-1.,  1.,  0.,  0.,  0.,  0.]]), 'FE0_f0_D10': array([[ 1.        ,  2.15470054,  0.        ,  0.84529946, -0.84529946,
          -3.15470054],
         [ 1.        , -0.15470054,  0.        ,  3.15470054, -3.15470054,
          -0.84529946]]), 'FE0_f0_D11': array([[  4.00000000e+00,   1.19904087e-14,   0.00000000e+00,
            4.00000000e+00,  -4.00000000e+00,  -4.00000000e+00],
         [  4.00000000e+00,   2.44249065e-15,   0.00000000e+00,
            4.00000000e+00,  -4.00000000e+00,  -4.00000000e+00]]), 'FE1_f0_C1': array([[  0.00000000e+00,   0.00000000e+00,   0.00000000e+00,
           -2.08166817e-17,   7.88675135e-01,   2.11324865e-01],
         [  0.00000000e+00,   0.00000000e+00,   0.00000000e+00,
            5.55111512e-17,   2.11324865e-01,   7.88675135e-01]]), 'FE1_f0_C0_D10': array([[-1.,  1.,  0.,  0.,  0.,  0.],
         [-1.,  1.,  0.,  0.,  0.,  0.]]), 'FE1_f1_C0_D01': array([[ -1.00000000e+00,   8.88178420e-16,   1.00000000e+00,
            0.00000000e+00,   0.00000000e+00,   0.00000000e+00],
         [ -1.00000000e+00,   8.88178420e-16,   1.00000000e+00,
            0.00000000e+00,   0.00000000e+00,   0.00000000e+00]]), 'FE1_f0_C0': array([[ -2.08166817e-17,   7.88675135e-01,   2.11324865e-01,
            0.00000000e+00,   0.00000000e+00,   0.00000000e+00],
         [  5.55111512e-17,   2.11324865e-01,   7.88675135e-01,
            0.00000000e+00,   0.00000000e+00,   0.00000000e+00]]), 'FE0_f2_D02': array([[  4.00000000e+00,   2.88657986e-15,   4.00000000e+00,
            1.77635684e-15,  -8.00000000e+00,  -4.88498131e-15],
         [  4.00000000e+00,   2.88657986e-15,   4.00000000e+00,
            4.44089210e-16,  -8.00000000e+00,  -1.77635684e-15]]), 'FE0_f2_D01': array([[ -2.15470054e+00,   5.99520433e-15,  -1.00000000e+00,
            8.45299462e-01,   3.15470054e+00,  -8.45299462e-01],
         [  1.54700538e-01,   8.10462808e-15,  -1.00000000e+00,
            3.15470054e+00,   8.45299462e-01,  -3.15470054e+00]]), 'FE1_f2_C1_D10': array([[ 0.,  0.,  0., -1.,  1.,  0.],
         [ 0.,  0.,  0., -1.,  1.,  0.]]), 'FE0_f2_D20': array([[ 4.,  4.,  0.,  0.,  0., -8.],
         [ 4.,  4.,  0.,  0.,  0., -8.]]), 'FE1_f0_C1_D10': array([[ 0.,  0.,  0., -1.,  1.,  0.],
         [ 0.,  0.,  0., -1.,  1.,  0.]]), 'FE1_f1_C1_D01': array([[  0.00000000e+00,   0.00000000e+00,   0.00000000e+00,
           -1.00000000e+00,   8.88178420e-16,   1.00000000e+00],
         [  0.00000000e+00,   0.00000000e+00,   0.00000000e+00,
           -1.00000000e+00,   8.88178420e-16,   1.00000000e+00]]), 'FE1_f2_C0_D10': array([[-1.,  1.,  0.,  0.,  0.,  0.],
         [-1.,  1.,  0.,  0.,  0.,  0.]]), 'FE0_f1_D20': array([[ 4.,  4.,  0.,  0.,  0., -8.],
         [ 4.,  4.,  0.,  0.,  0., -8.]]), 'FE0_f1_D01': array([[ -2.15470054e+00,   5.82867088e-15,  -1.54700538e-01,
           -1.13242749e-14,   2.30940108e+00,   1.60982339e-15],
         [  1.54700538e-01,   7.77156117e-15,   2.15470054e+00,
           -1.64313008e-14,  -2.30940108e+00,   2.33146835e-15]]), 'FE0_f1_D02': array([[  4.00000000e+00,   2.88657986e-15,   4.00000000e+00,
            4.44089210e-16,  -8.00000000e+00,  -5.55111512e-15],
         [  4.00000000e+00,   3.33066907e-15,   4.00000000e+00,
           -1.15463195e-14,  -8.00000000e+00,   6.66133815e-16]]), 'FE0_f0_D20': array([[ 4.,  4.,  0.,  0.,  0., -8.],
         [ 4.,  4.,  0.,  0.,  0., -8.]]), 'FE0_f0_D01': array([[  1.00000000e+00,   8.93729535e-15,  -1.54700538e-01,
            3.15470054e+00,  -8.45299462e-01,  -3.15470054e+00],
         [  1.00000000e+00,   8.43769499e-15,   2.15470054e+00,
            8.45299462e-01,  -3.15470054e+00,  -8.45299462e-01]]), 'FE2_f0': array([[ 1.],
         [ 1.]]), 'FE0_f0_D02': array([[  4.00000000e+00,   2.88657986e-15,   4.00000000e+00,
           -1.77635684e-15,  -8.00000000e+00,  -1.77635684e-15],
         [  4.00000000e+00,   3.33066907e-15,   4.00000000e+00,
           -1.19904087e-14,  -8.00000000e+00,   1.99840144e-15]]), 'FE1_f0_C0_D01': array([[ -1.00000000e+00,   8.88178420e-16,   1.00000000e+00,
            0.00000000e+00,   0.00000000e+00,   0.00000000e+00],
         [ -1.00000000e+00,   8.88178420e-16,   1.00000000e+00,
            0.00000000e+00,   0.00000000e+00,   0.00000000e+00]]), 'FE1_f1_C1': array([[  0.00000000e+00,   0.00000000e+00,   0.00000000e+00,
            7.88675135e-01,  -2.08166817e-17,   2.11324865e-01],
         [  0.00000000e+00,   0.00000000e+00,   0.00000000e+00,
            2.11324865e-01,   5.55111512e-17,   7.88675135e-01]]), 'FE1_f1_C0': array([[  7.88675135e-01,  -2.08166817e-17,   2.11324865e-01,
            0.00000000e+00,   0.00000000e+00,   0.00000000e+00],
         [  2.11324865e-01,   5.55111512e-17,   7.88675135e-01,
            0.00000000e+00,   0.00000000e+00,   0.00000000e+00]])}
  
  tables: {'FE0_f0': array([[  2.77555756e-17,   4.55341801e-01,  -1.22008468e-01,
            6.66666667e-01,  -1.38777878e-17,  -1.73472348e-17],
         [  4.16333634e-17,  -1.22008468e-01,   4.55341801e-01,
            6.66666667e-01,  -5.55111512e-17,  -4.16333634e-17]]), 'FE0_f1': array([[  4.55341801e-01,   2.08166817e-17,  -1.22008468e-01,
           -1.38777878e-17,   6.66666667e-01,  -1.73472348e-17],
         [ -1.22008468e-01,   9.02056208e-17,   4.55341801e-01,
           -2.77555756e-17,   6.66666667e-01,  -4.16333634e-17]]), 'FE0_f2': array([[  4.55341801e-01,  -1.22008468e-01,   0.00000000e+00,
            0.00000000e+00,   0.00000000e+00,   6.66666667e-01],
         [ -1.22008468e-01,   4.55341801e-01,   0.00000000e+00,
            2.77555756e-17,  -5.55111512e-17,   6.66666667e-01]]), 'FE1_f0_C1_D01': array([[  0.00000000e+00,   0.00000000e+00,   0.00000000e+00,
           -1.00000000e+00,   8.88178420e-16,   1.00000000e+00],
         [  0.00000000e+00,   0.00000000e+00,   0.00000000e+00,
           -1.00000000e+00,   8.88178420e-16,   1.00000000e+00]]), 'FE0_f1_D10': array([[-2.15470054, -1.        ,  0.        ,  0.84529946, -0.84529946,
           3.15470054],
         [ 0.15470054, -1.        ,  0.        ,  3.15470054, -3.15470054,
           0.84529946]]), 'FE0_f2_D10': array([[ -2.15470054e+00,  -1.54700538e-01,   0.00000000e+00,
           -1.22124533e-15,   1.22124533e-15,   2.30940108e+00],
         [  1.54700538e-01,   2.15470054e+00,   0.00000000e+00,
           -1.22124533e-15,   1.22124533e-15,  -2.30940108e+00]]), 'FE0_f2_D11': array([[  4.00000000e+00,   8.43769499e-15,   0.00000000e+00,
            4.00000000e+00,  -4.00000000e+00,  -4.00000000e+00],
         [  4.00000000e+00,   1.24344979e-14,   0.00000000e+00,
            4.00000000e+00,  -4.00000000e+00,  -4.00000000e+00]]), 'FE1_f2_C0': array([[ 0.78867513,  0.21132487,  0.        ,  0.        ,  0.        ,
           0.        ],
         [ 0.21132487,  0.78867513,  0.        ,  0.        ,  0.        ,
           0.        ]]), 'FE1_f2_C1': array([[ 0.        ,  0.        ,  0.        ,  0.78867513,  0.21132487,
           0.        ],
         [ 0.        ,  0.        ,  0.        ,  0.21132487,  0.78867513,
           0.        ]]), 'FE0_f0_D10': array([[ 1.        ,  2.15470054,  0.        ,  0.84529946, -0.84529946,
          -3.15470054],
         [ 1.        , -0.15470054,  0.        ,  3.15470054, -3.15470054,
          -0.84529946]]), 'FE0_f0_D11': array([[  4.00000000e+00,   1.19904087e-14,   0.00000000e+00,
            4.00000000e+00,  -4.00000000e+00,  -4.00000000e+00],
         [  4.00000000e+00,   2.44249065e-15,   0.00000000e+00,
            4.00000000e+00,  -4.00000000e+00,  -4.00000000e+00]]), 'FE1_f0_C1': array([[  0.00000000e+00,   0.00000000e+00,   0.00000000e+00,
           -2.08166817e-17,   7.88675135e-01,   2.11324865e-01],
         [  0.00000000e+00,   0.00000000e+00,   0.00000000e+00,
            5.55111512e-17,   2.11324865e-01,   7.88675135e-01]]), 'FE1_f0_C0_D10': array([[-1.,  1.,  0.,  0.,  0.,  0.],
         [-1.,  1.,  0.,  0.,  0.,  0.]]), 'FE1_f0_C0': array([[ -2.08166817e-17,   7.88675135e-01,   2.11324865e-01,
            0.00000000e+00,   0.00000000e+00,   0.00000000e+00],
         [  5.55111512e-17,   2.11324865e-01,   7.88675135e-01,
            0.00000000e+00,   0.00000000e+00,   0.00000000e+00]]), 'FE0_f2_D02': array([[  4.00000000e+00,   2.88657986e-15,   4.00000000e+00,
            1.77635684e-15,  -8.00000000e+00,  -4.88498131e-15],
         [  4.00000000e+00,   2.88657986e-15,   4.00000000e+00,
            4.44089210e-16,  -8.00000000e+00,  -1.77635684e-15]]), 'FE0_f2_D01': array([[ -2.15470054e+00,   5.99520433e-15,  -1.00000000e+00,
            8.45299462e-01,   3.15470054e+00,  -8.45299462e-01],
         [  1.54700538e-01,   8.10462808e-15,  -1.00000000e+00,
            3.15470054e+00,   8.45299462e-01,  -3.15470054e+00]]), 'FE1_f0_C1_D10': array([[ 0.,  0.,  0., -1.,  1.,  0.],
         [ 0.,  0.,  0., -1.,  1.,  0.]]), 'FE0_f1_D20': array([[ 4.,  4.,  0.,  0.,  0., -8.],
         [ 4.,  4.,  0.,  0.,  0., -8.]]), 'FE0_f1_D01': array([[ -2.15470054e+00,   5.82867088e-15,  -1.54700538e-01,
           -1.13242749e-14,   2.30940108e+00,   1.60982339e-15],
         [  1.54700538e-01,   7.77156117e-15,   2.15470054e+00,
           -1.64313008e-14,  -2.30940108e+00,   2.33146835e-15]]), 'FE0_f0_D20': array([[ 4.,  4.,  0.,  0.,  0., -8.],
         [ 4.,  4.,  0.,  0.,  0., -8.]]), 'FE0_f0_D01': array([[  1.00000000e+00,   8.93729535e-15,  -1.54700538e-01,
            3.15470054e+00,  -8.45299462e-01,  -3.15470054e+00],
         [  1.00000000e+00,   8.43769499e-15,   2.15470054e+00,
            8.45299462e-01,  -3.15470054e+00,  -8.45299462e-01]]), 'FE2_f0': array([[ 1.],
         [ 1.]]), 'FE0_f0_D02': array([[  4.00000000e+00,   2.88657986e-15,   4.00000000e+00,
           -1.77635684e-15,  -8.00000000e+00,  -1.77635684e-15],
         [  4.00000000e+00,   3.33066907e-15,   4.00000000e+00,
           -1.19904087e-14,  -8.00000000e+00,   1.99840144e-15]]), 'FE1_f0_C0_D01': array([[ -1.00000000e+00,   8.88178420e-16,   1.00000000e+00,
            0.00000000e+00,   0.00000000e+00,   0.00000000e+00],
         [ -1.00000000e+00,   8.88178420e-16,   1.00000000e+00,
            0.00000000e+00,   0.00000000e+00,   0.00000000e+00]]), 'FE1_f1_C1': array([[  0.00000000e+00,   0.00000000e+00,   0.00000000e+00,
            7.88675135e-01,  -2.08166817e-17,   2.11324865e-01],
         [  0.00000000e+00,   0.00000000e+00,   0.00000000e+00,
            2.11324865e-01,   5.55111512e-17,   7.88675135e-01]]), 'FE1_f1_C0': array([[  7.88675135e-01,  -2.08166817e-17,   2.11324865e-01,
            0.00000000e+00,   0.00000000e+00,   0.00000000e+00],
         [  2.11324865e-01,   5.55111512e-17,   7.88675135e-01,
            0.00000000e+00,   0.00000000e+00,   0.00000000e+00]])}
  
  name_map: {'FE1_f0_C1_D01': ['FE1_f1_C1_D01', 'FE1_f2_C1_D01'], 'FE2_f0': ['FE2_f1', 'FE2_f2'], 'FE0_f0_D11': ['FE0_f1_D11'], 'FE1_f0_C1_D10': ['FE1_f1_C1_D10', 'FE1_f2_C1_D10'], 'FE0_f1_D20': ['FE0_f2_D20'], 'FE0_f0_D02': ['FE0_f1_D02'], 'FE1_f0_C0_D01': ['FE1_f1_C0_D01', 'FE1_f2_C0_D01'], 'FE1_f0_C0_D10': ['FE1_f1_C0_D10', 'FE1_f2_C0_D10']}
  
  inv_name_map: {'FE0_f0': 'FE0_f0', 'FE1_f1_C0_D10': 'FE1_f0_C0_D10', 'FE0_f2': 'FE0_f2', 'FE0_f0_D01': 'FE0_f0_D01', 'FE1_f0_C1_D01': 'FE1_f0_C1_D01', 'FE1_f2_C1_D01': 'FE1_f0_C1_D01', 'FE1_f1_C1_D10': 'FE1_f0_C1_D10', 'FE0_f1_D11': 'FE0_f0_D11', 'FE0_f1_D10': 'FE0_f1_D10', 'FE0_f2_D10': 'FE0_f2_D10', 'FE0_f2_D11': 'FE0_f2_D11', 'FE1_f2_C0': 'FE1_f2_C0', 'FE1_f2_C1': 'FE1_f2_C1', 'FE0_f0_D02': 'FE0_f0_D02', 'FE1_f2_C0_D01': 'FE1_f0_C0_D01', 'FE0_f1': 'FE0_f1', 'FE0_f0_D10': 'FE0_f0_D10', 'FE0_f0_D11': 'FE0_f0_D11', 'FE0_f2_D02': 'FE0_f2_D02', 'FE1_f0_C0_D10': 'FE1_f0_C0_D10', 'FE1_f1_C0_D01': 'FE1_f0_C0_D01', 'FE1_f0_C0': 'FE1_f0_C0', 'FE1_f0_C1': 'FE1_f0_C1', 'FE0_f2_D01': 'FE0_f2_D01', 'FE1_f2_C1_D10': 'FE1_f0_C1_D10', 'FE0_f2_D20': 'FE0_f1_D20', 'FE1_f0_C1_D10': 'FE1_f0_C1_D10', 'FE1_f1_C1_D01': 'FE1_f0_C1_D01', 'FE1_f2_C0_D10': 'FE1_f0_C0_D10', 'FE0_f1_D20': 'FE0_f1_D20', 'FE0_f1_D01': 'FE0_f1_D01', 'FE0_f1_D02': 'FE0_f0_D02', 'FE0_f0_D20': 'FE0_f0_D20', 'FE2_f2': 'FE2_f0', 'FE2_f0': 'FE2_f0', 'FE2_f1': 'FE2_f0', 'FE1_f0_C0_D01': 'FE1_f0_C0_D01', 'FE1_f1_C1': 'FE1_f1_C1', 'FE1_f1_C0': 'FE1_f1_C0'}
  
  QG-utils, psi_tables, unique_tables:
  {'FE0_f0': array([[ 0.4553418 , -0.12200847,  0.66666667],
         [-0.12200847,  0.4553418 ,  0.66666667]]), 'FE0_f1_D10': array([[-2.15470054, -1.        ,  0.84529946, -0.84529946,  3.15470054],
         [ 0.15470054, -1.        ,  3.15470054, -3.15470054,  0.84529946]]), 'FE0_f2_D10': array([[-2.15470054, -0.15470054,  2.30940108],
         [ 0.15470054,  2.15470054, -2.30940108]]), 'FE0_f2_D11': array([[  4.00000000e+00,   0.00000000e+00,   4.00000000e+00,
           -4.00000000e+00,  -4.00000000e+00],
         [  4.00000000e+00,   1.24344979e-14,   4.00000000e+00,
           -4.00000000e+00,  -4.00000000e+00]]), 'FE0_f0_D10': array([[ 1.        ,  2.15470054,  0.84529946, -0.84529946, -3.15470054],
         [ 1.        , -0.15470054,  3.15470054, -3.15470054, -0.84529946]]), 'FE0_f0_D11': array([[  4.00000000e+00,   1.19904087e-14,   4.00000000e+00,
           -4.00000000e+00,  -4.00000000e+00],
         [  4.00000000e+00,   0.00000000e+00,   4.00000000e+00,
           -4.00000000e+00,  -4.00000000e+00]]), 'FE1_f0_C0': array([[ 0.78867513,  0.21132487],
         [ 0.21132487,  0.78867513]]), 'FE0_f2_D01': array([[-2.15470054, -1.        ,  0.84529946,  3.15470054, -0.84529946],
         [ 0.15470054, -1.        ,  3.15470054,  0.84529946, -3.15470054]]), 'FE0_f1_D20': array([[ 4.,  4., -8.],
         [ 4.,  4., -8.]]), 'FE0_f1_D01': array([[ -2.15470054e+00,  -1.54700538e-01,  -1.13242749e-14,
            2.30940108e+00],
         [  1.54700538e-01,   2.15470054e+00,  -1.64313008e-14,
           -2.30940108e+00]]), 'FE0_f0_D20': array([[ 4.,  4., -8.],
         [ 4.,  4., -8.]]), 'FE0_f0_D01': array([[ 1.        , -0.15470054,  3.15470054, -0.84529946, -3.15470054],
         [ 1.        ,  2.15470054,  0.84529946, -3.15470054, -0.84529946]]), 'FE2_f0': array([[ 1.],
         [ 1.]]), 'FE0_f0_D02': array([[  4.00000000e+00,   4.00000000e+00,   0.00000000e+00,
           -8.00000000e+00],
         [  4.00000000e+00,   4.00000000e+00,  -1.19904087e-14,
           -8.00000000e+00]]), 'FE1_f0_C0_D01': array([[-1.,  1.],
         [-1.,  1.]])}
  
  QG-utils, psi_tables, name_map:
  {'FE0_f0': ('FE0_f0', (0, [1, 2, 3]), False, False), 'FE1_f1_C0_D10': ('FE1_f0_C0_D01', (17, [0, 1]), False, False), 'FE0_f2': ('FE0_f0', (10, [0, 1, 5]), False, False), 'FE0_f0_D01': ('FE0_f0_D01', (1, [0, 2, 3, 4, 5]), False, False), 'FE1_f0_C1_D01': ('FE1_f0_C0_D01', (19, [3, 5]), False, False), 'FE1_f2_C1_D01': ('FE1_f0_C0_D01', (19, [3, 5]), False, False), 'FE1_f1_C1_D10': ('FE1_f0_C0_D01', (20, [3, 4]), False, False), 'FE0_f1_D11': ('FE0_f0_D11', (4, [0, 1, 3, 4, 5]), False, False), 'FE0_f1_D10': ('FE0_f1_D10', (8, [0, 1, 3, 4, 5]), False, False), 'FE0_f2_D10': ('FE0_f2_D10', (13, [0, 1, 5]), False, False), 'FE0_f2_D11': ('FE0_f2_D11', (14, [0, 1, 3, 4, 5]), False, False), 'FE1_f2_C0': ('FE1_f0_C0', (23, [0, 1]), False, False), 'FE1_f2_C1': ('FE1_f0_C0', (24, [3, 4]), False, False), 'FE0_f0_D02': ('FE0_f0_D02', (2, [0, 2, 3, 4]), False, False), 'FE1_f2_C0_D01': ('FE1_f0_C0_D01', (16, [0, 2]), False, False), 'FE0_f1': ('FE0_f0', (6, [0, 2, 4]), False, False), 'FE0_f0_D10': ('FE0_f0_D10', (3, [0, 1, 3, 4, 5]), False, False), 'FE0_f0_D11': ('FE0_f0_D11', (4, [0, 1, 3, 4, 5]), False, False), 'FE0_f2_D02': ('FE0_f0_D20', (12, [0, 2, 4]), False, False), 'FE1_f0_C0_D10': ('FE1_f0_C0_D01', (17, [0, 1]), False, False), 'FE1_f1_C0_D01': ('FE1_f0_C0_D01', (16, [0, 2]), False, False), 'FE1_f0_C0': ('FE1_f0_C0', (15, [1, 2]), False, False), 'FE1_f0_C1': ('FE1_f0_C0', (18, [4, 5]), False, False), 'FE0_f2_D01': ('FE0_f2_D01', (11, [0, 2, 3, 4, 5]), False, False), 'FE1_f2_C1_D10': ('FE1_f0_C0_D01', (20, [3, 4]), False, False), 'FE0_f2_D20': ('FE0_f1_D20', (9, [0, 1, 5]), False, False), 'FE1_f0_C1_D10': ('FE1_f0_C0_D01', (20, [3, 4]), False, False), 'FE1_f1_C1_D01': ('FE1_f0_C0_D01', (19, [3, 5]), False, False), 'FE1_f2_C0_D10': ('FE1_f0_C0_D01', (17, [0, 1]), False, False), 'FE0_f1_D20': ('FE0_f1_D20', (9, [0, 1, 5]), False, False), 'FE0_f1_D01': ('FE0_f1_D01', (7, [0, 2, 3, 4]), False, False), 'FE0_f1_D02': ('FE0_f0_D02', (2, [0, 2, 3, 4]), False, False), 'FE0_f0_D20': ('FE0_f0_D20', (5, [0, 1, 5]), False, False), 'FE2_f2': ('FE2_f0', (), False, True), 'FE2_f0': ('FE2_f0', (), False, True), 'FE2_f1': ('FE2_f0', (), False, True), 'FE1_f0_C0_D01': ('FE1_f0_C0_D01', (16, [0, 2]), False, False), 'FE1_f1_C1': ('FE1_f0_C0', (22, [3, 5]), False, False), 'FE1_f1_C0': ('FE1_f0_C0', (21, [0, 2]), False, False)}
  Transforming interior facet integral (0, 0)
  Reusing element from cache
  Reusing element from cache
  Reusing element from cache
  Reusing element from cache
  Reusing element from cache
  Reusing element from cache
  Reusing element from cache
  Reusing element from cache
  Reusing element from cache
  Reusing element from cache
  Reusing element from cache
  Reusing element from cache
  Reusing element from cache
  Reusing element from cache
  Reusing element from cache
  Reusing element from cache
  Reusing element from cache
  Reusing element from cache
  Reusing element from cache
  Reusing element from cache
  Reusing element from cache
  Reusing element from cache
  Reusing element from cache
  Reusing element from cache
  Reusing element from cache
  Reusing element from cache
  Reusing element from cache
  Reusing element from cache
  Reusing element from cache
  Reusing element from cache
  Reusing element from cache
  Reusing element from cache
  Reusing element from cache
  Reusing element from cache
  Reusing element from cache
  Reusing element from cache
  Reusing element from cache
  Reusing element from cache
  Reusing element from cache
  Reusing element from cache
  Reusing element from cache
  Reusing element from cache
  Reusing element from cache
  Reusing element from cache
  Reusing element from cache
  Reusing element from cache
  Reusing element from cache
  Reusing element from cache
  Reusing element from cache
  Reusing element from cache
  Transforming interior facet integral (0, 1)
  Reusing element from cache
  Reusing element from cache
  Reusing element from cache
  Reusing element from cache
  Reusing element from cache
  Reusing element from cache
  Reusing element from cache
  Reusing element from cache
  Reusing element from cache
  Reusing element from cache
  Reusing element from cache
  Reusing element from cache
  Reusing element from cache
  Reusing element from cache
  Reusing element from cache
  Reusing element from cache
  Reusing element from cache
  Reusing element from cache
  Reusing element from cache
  Reusing element from cache
  Reusing element from cache
  Reusing element from cache
  Reusing element from cache
  Reusing element from cache
  Reusing element from cache
  Reusing element from cache
  Reusing element from cache
  Reusing element from cache
  Reusing element from cache
  Reusing element from cache
  Reusing element from cache
  Reusing element from cache
  Reusing element from cache
  Reusing element from cache
  Reusing element from cache
  Reusing element from cache
  Reusing element from cache
  Reusing element from cache
  Reusing element from cache
  Reusing element from cache
  Reusing element from cache
  Reusing element from cache
  Reusing element from cache
  Reusing element from cache
  Reusing element from cache
  Reusing element from cache
  Reusing element from cache
  Reusing element from cache
  Reusing element from cache
  Reusing element from cache
  Transforming interior facet integral (0, 2)
  Reusing element from cache
  Reusing element from cache
  Reusing element from cache
  Reusing element from cache
  Reusing element from cache
  Reusing element from cache
  Reusing element from cache
  Reusing element from cache
  Reusing element from cache
  Reusing element from cache
  Reusing element from cache
  Reusing element from cache
  Reusing element from cache
  Reusing element from cache
  Reusing element from cache
  Reusing element from cache
  Reusing element from cache
  Reusing element from cache
  Reusing element from cache
  Reusing element from cache
  Reusing element from cache
  Reusing element from cache
  Reusing element from cache
  Reusing element from cache
  Reusing element from cache
  Reusing element from cache
  Reusing element from cache
  Reusing element from cache
  Reusing element from cache
  Reusing element from cache
  Reusing element from cache
  Reusing element from cache
  Reusing element from cache
  Reusing element from cache
  Reusing element from cache
  Reusing element from cache
  Reusing element from cache
  Reusing element from cache
  Reusing element from cache
  Reusing element from cache
  Reusing element from cache
  Reusing element from cache
  Reusing element from cache
  Reusing element from cache
  Reusing element from cache
  Reusing element from cache
  Reusing element from cache
  Reusing element from cache
  Reusing element from cache
  Reusing element from cache
  Transforming interior facet integral (1, 0)
  Reusing element from cache
  Reusing element from cache
  Reusing element from cache
  Reusing element from cache
  Reusing element from cache
  Reusing element from cache
  Reusing element from cache
  Reusing element from cache
  Reusing element from cache
  Reusing element from cache
  Reusing element from cache
  Reusing element from cache
  Reusing element from cache
  Reusing element from cache
  Reusing element from cache
  Reusing element from cache
  Reusing element from cache
  Reusing element from cache
  Reusing element from cache
  Reusing element from cache
  Reusing element from cache
  Reusing element from cache
  Reusing element from cache
  Reusing element from cache
  Reusing element from cache
  Reusing element from cache
  Reusing element from cache
  Reusing element from cache
  Reusing element from cache
  Reusing element from cache
  Reusing element from cache
  Reusing element from cache
  Reusing element from cache
  Reusing element from cache
  Reusing element from cache
  Reusing element from cache
  Reusing element from cache
  Reusing element from cache
  Reusing element from cache
  Reusing element from cache
  Reusing element from cache
  Reusing element from cache
  Reusing element from cache
  Reusing element from cache
  Reusing element from cache
  Reusing element from cache
  Reusing element from cache
  Reusing element from cache
  Reusing element from cache
  Reusing element from cache
  Transforming interior facet integral (1, 1)
  Reusing element from cache
  Reusing element from cache
  Reusing element from cache
  Reusing element from cache
  Reusing element from cache
  Reusing element from cache
  Reusing element from cache
  Reusing element from cache
  Reusing element from cache
  Reusing element from cache
  Reusing element from cache
  Reusing element from cache
  Reusing element from cache
  Reusing element from cache
  Reusing element from cache
  Reusing element from cache
  Reusing element from cache
  Reusing element from cache
  Reusing element from cache
  Reusing element from cache
  Reusing element from cache
  Reusing element from cache
  Reusing element from cache
  Reusing element from cache
  Reusing element from cache
  Reusing element from cache
  Reusing element from cache
  Reusing element from cache
  Reusing element from cache
  Reusing element from cache
  Reusing element from cache
  Reusing element from cache
  Reusing element from cache
  Reusing element from cache
  Reusing element from cache
  Reusing element from cache
  Reusing element from cache
  Reusing element from cache
  Reusing element from cache
  Reusing element from cache
  Reusing element from cache
  Reusing element from cache
  Reusing element from cache
  Reusing element from cache
  Reusing element from cache
  Reusing element from cache
  Reusing element from cache
  Reusing element from cache
  Reusing element from cache
  Reusing element from cache
  Transforming interior facet integral (1, 2)
  Reusing element from cache
  Reusing element from cache
  Reusing element from cache
  Reusing element from cache
  Reusing element from cache
  Reusing element from cache
  Reusing element from cache
  Reusing element from cache
  Reusing element from cache
  Reusing element from cache
  Reusing element from cache
  Reusing element from cache
  Reusing element from cache
  Reusing element from cache
  Reusing element from cache
  Reusing element from cache
  Reusing element from cache
  Reusing element from cache
  Reusing element from cache
  Reusing element from cache
  Reusing element from cache
  Reusing element from cache
  Reusing element from cache
  Reusing element from cache
  Reusing element from cache
  Reusing element from cache
  Reusing element from cache
  Reusing element from cache
  Reusing element from cache
  Reusing element from cache
  Reusing element from cache
  Reusing element from cache
  Reusing element from cache
  Reusing element from cache
  Reusing element from cache
  Reusing element from cache
  Reusing element from cache
  Reusing element from cache
  Reusing element from cache
  Reusing element from cache
  Reusing element from cache
  Reusing element from cache
  Reusing element from cache
  Reusing element from cache
  Reusing element from cache
  Reusing element from cache
  Reusing element from cache
  Reusing element from cache
  Reusing element from cache
  Reusing element from cache
  Transforming interior facet integral (2, 0)
  Reusing element from cache
  Reusing element from cache
  Reusing element from cache
  Reusing element from cache
  Reusing element from cache
  Reusing element from cache
  Reusing element from cache
  Reusing element from cache
  Reusing element from cache
  Reusing element from cache
  Reusing element from cache
  Reusing element from cache
  Reusing element from cache
  Reusing element from cache
  Reusing element from cache
  Reusing element from cache
  Reusing element from cache
  Reusing element from cache
  Reusing element from cache
  Reusing element from cache
  Reusing element from cache
  Reusing element from cache
  Reusing element from cache
  Reusing element from cache
  Reusing element from cache
  Reusing element from cache
  Reusing element from cache
  Reusing element from cache
  Reusing element from cache
  Reusing element from cache
  Reusing element from cache
  Reusing element from cache
  Reusing element from cache
  Reusing element from cache
  Reusing element from cache
  Reusing element from cache
  Reusing element from cache
  Reusing element from cache
  Reusing element from cache
  Reusing element from cache
  Reusing element from cache
  Reusing element from cache
  Reusing element from cache
  Reusing element from cache
  Reusing element from cache
  Reusing element from cache
  Reusing element from cache
  Reusing element from cache
  Reusing element from cache
  Reusing element from cache
  Transforming interior facet integral (2, 1)
  Reusing element from cache
  Reusing element from cache
  Reusing element from cache
  Reusing element from cache
  Reusing element from cache
  Reusing element from cache
  Reusing element from cache
  Reusing element from cache
  Reusing element from cache
  Reusing element from cache
  Reusing element from cache
  Reusing element from cache
  Reusing element from cache
  Reusing element from cache
  Reusing element from cache
  Reusing element from cache
  Reusing element from cache
  Reusing element from cache
  Reusing element from cache
  Reusing element from cache
  Reusing element from cache
  Reusing element from cache
  Reusing element from cache
  Reusing element from cache
  Reusing element from cache
  Reusing element from cache
  Reusing element from cache
  Reusing element from cache
  Reusing element from cache
  Reusing element from cache
  Reusing element from cache
  Reusing element from cache
  Reusing element from cache
  Reusing element from cache
  Reusing element from cache
  Reusing element from cache
  Reusing element from cache
  Reusing element from cache
  Reusing element from cache
  Reusing element from cache
  Reusing element from cache
  Reusing element from cache
  Reusing element from cache
  Reusing element from cache
  Reusing element from cache
  Reusing element from cache
  Reusing element from cache
  Reusing element from cache
  Reusing element from cache
  Reusing element from cache
  Transforming interior facet integral (2, 2)
  Reusing element from cache
  Reusing element from cache
  Reusing element from cache
  Reusing element from cache
  Reusing element from cache
  Reusing element from cache
  Reusing element from cache
  Reusing element from cache
  Reusing element from cache
  Reusing element from cache
  Reusing element from cache
  Reusing element from cache
  Reusing element from cache
  Reusing element from cache
  Reusing element from cache
  Reusing element from cache
  Reusing element from cache
  Reusing element from cache
  Reusing element from cache
  Reusing element from cache
  Reusing element from cache
  Reusing element from cache
  Reusing element from cache
  Reusing element from cache
  Reusing element from cache
  Reusing element from cache
  Reusing element from cache
  Reusing element from cache
  Reusing element from cache
  Reusing element from cache
  Reusing element from cache
  Reusing element from cache
  Reusing element from cache
  Reusing element from cache
  Reusing element from cache
  Reusing element from cache
  Reusing element from cache
  Reusing element from cache
  Reusing element from cache
  Reusing element from cache
  Reusing element from cache
  Reusing element from cache
  Reusing element from cache
  Reusing element from cache
  Reusing element from cache
  Reusing element from cache
  Reusing element from cache
  Reusing element from cache
  Reusing element from cache
  Reusing element from cache
  Reusing element from cache
  Reusing element from cache
  Reusing element from cache
  Computing tensor representation
  Extracting monomial form representation from UFL form
  Transforming monomial form to reference element
  Reusing element from cache
  Reusing element from cache
  Precomputing integrals on reference element
  Reusing element from cache
  36 entries computed in 0.000657 seconds
  Shape of reference tensor: (6, 6)
  Primary multi index:   rank = 1 dims = [6] indices = [[0], [1], [2], [3], [4], [5]]
  Secondary multi index: rank = 1 dims = [6] indices = [[0], [1], [2], [3], [4], [5]]
  Internal multi index:  rank = 0 dims = [] indices = [[]]
  Secondary multi index: rank = 1 dims = [6] indices = [[0], [1], [2], [3], [4], [5]]
  External multi index:  rank = 0 dims = [] indices = [[]]
  Reusing element from cache
  Computing representation of forms
  
Compiler stage 2 finished in 0.264795 seconds.

Compiler stage 3: Optimizing intermediate representation
--------------------------------------------------------
  Optimising expressions for cell integral
  Optimising expressions for facet integral (0, 0)
  Optimising expressions for facet integral (0, 1)
  Optimising expressions for facet integral (0, 2)
  Optimising expressions for facet integral (1, 0)
  Optimising expressions for facet integral (1, 1)
  Optimising expressions for facet integral (1, 2)
  Optimising expressions for facet integral (2, 0)
  Optimising expressions for facet integral (2, 1)
  Optimising expressions for facet integral (2, 2)
  
Compiler stage 3 finished in 0.239842 seconds.

Compiler stage 4: Generating code
---------------------------------
  Generating code for 2 element(s)
  Removing unused variable: tmp2
  Removing unused variable: tmp1
  Removing unused variable: tmp0
  Removing unused variable: tmp7
  Removing unused variable: tmp6
  Removing unused variable: tmp5
  Removing unused variable: tt
  Removing unused variable: ss
  Removing unused variable: rr
  Removing unused variable: Y
  Removing unused variable: X
  Removing unused variable: C1
  Removing unused variable: C0
  Removing unused variable: tmp7
  Removing unused variable: tmp6
  Removing unused variable: tmp5
  Removing unused variable: tt
  Removing unused variable: ss
  Removing unused variable: rr
  Removing unused variable: tmp7
  Removing unused variable: tmp6
  Removing unused variable: tmp5
  Removing unused variable: tt
  Removing unused variable: ss
  Removing unused variable: rr
  Removing unused variable: tmp7
  Removing unused variable: tmp6
  Removing unused variable: tmp5
  Removing unused variable: tt
  Removing unused variable: ss
  Removing unused variable: rr
  Removing unused variable: tmp7
  Removing unused variable: tmp6
  Removing unused variable: tmp5
  Removing unused variable: tt
  Removing unused variable: ss
  Removing unused variable: rr
  Removing unused variable: tmp7
  Removing unused variable: tmp6
  Removing unused variable: tmp5
  Removing unused variable: tt
  Removing unused variable: ss
  Removing unused variable: rr
  Removing unused variable: tmp7
  Removing unused variable: tmp6
  Removing unused variable: tmp5
  Removing unused variable: tt
  Removing unused variable: ss
  Removing unused variable: rr
  Removing unused variable: tmp7
  Removing unused variable: tmp6
  Removing unused variable: tmp5
  Removing unused variable: tt
  Removing unused variable: ss
  Removing unused variable: rr
  Removing unused variable: tmp7
  Removing unused variable: tmp6
  Removing unused variable: tmp5
  Removing unused variable: tt
  Removing unused variable: ss
  Removing unused variable: rr
  Removing unused variable: tmp7
  Removing unused variable: tmp6
  Removing unused variable: tmp5
  Removing unused variable: tt
  Removing unused variable: ss
  Removing unused variable: rr
  Removing unused variable: tmp7
  Removing unused variable: tmp6
  Removing unused variable: tmp5
  Removing unused variable: tt
  Removing unused variable: ss
  Removing unused variable: rr
  Removing unused variable: tmp7
  Removing unused variable: tmp6
  Removing unused variable: tmp5
  Removing unused variable: tt
  Removing unused variable: ss
  Removing unused variable: rr
  Removing unused variable: tmp7
  Removing unused variable: tmp6
  Removing unused variable: tmp5
  Removing unused variable: tt
  Removing unused variable: ss
  Removing unused variable: rr
  Generating code for 2 dofmap(s)
  Generating code for integrals
  Removing unused variable: circumradius
  Removing unused variable: v0v1
  Removing unused variable: v0v2
  Removing unused variable: v1v2
  Removing unused variable: volume
  Removing unused variable: facet_area
  Removing unused variable: n_11
  Removing unused variable: n_10
  Generating code for forms
  
Compiler stage 4 finished in 0.121206 seconds.

Compiler stage 4.1: Generating additional wrapper code
------------------------------------------------------
  Generating wrapper code for DOLFIN
  
Compiler stage 4.1 finished in 0.000571012 seconds.

Compiler stage 5: Formatting code
---------------------------------
  Output written to ./Biharmonic.h.
  
Compiler stage 5 finished in 0.000810146 seconds.

[1;37;32mFFC finished in 0.721337 seconds.[0m
